%YAML 1.1
%TAG !u! tag:unity3d.com,2011:
--- !u!114 &11400000
MonoBehaviour:
  m_ObjectHideFlags: 0
  m_PrefabParentObject: {fileID: 0}
  m_PrefabInternal: {fileID: 0}
  m_GameObject: {fileID: 0}
  m_Enabled: 1
  m_EditorHideFlags: 0
  m_Script: {fileID: 11500000, guid: aa5f0e7384838e044bc0a70443e18a7a, type: 3}
  m_Name: FlatColdDamage
  m_EditorClassIdentifier: 
  TierArray:
  - tier: 1
    minimumLevelToRollTier: 0
    modifierMinValue: 2
    modifierMaxValue: 4
    secondModifierMinValue: 4
    secondModifierMaxValue: 6
  - tier: 2
    minimumLevelToRollTier: 10
    modifierMinValue: 6
    modifierMaxValue: 9
    secondModifierMinValue: 9
    secondModifierMaxValue: 13
  - tier: 3
    minimumLevelToRollTier: 20
    modifierMinValue: 13
    modifierMaxValue: 18
    secondModifierMinValue: 18
    secondModifierMaxValue: 24
  - tier: 4
    minimumLevelToRollTier: 30
    modifierMinValue: 24
    modifierMaxValue: 29
    secondModifierMinValue: 29
    secondModifierMaxValue: 35
  - tier: 5
    minimumLevelToRollTier: 40
    modifierMinValue: 35
    modifierMaxValue: 45
    secondModifierMinValue: 45
    secondModifierMaxValue: 60
