%YAML 1.1
%TAG !u! tag:unity3d.com,2011:
--- !u!114 &11400000
MonoBehaviour:
  m_ObjectHideFlags: 0
  m_PrefabParentObject: {fileID: 0}
  m_PrefabInternal: {fileID: 0}
  m_GameObject: {fileID: 0}
  m_Enabled: 1
  m_EditorHideFlags: 0
  m_Script: {fileID: 11500000, guid: aa5f0e7384838e044bc0a70443e18a7a, type: 3}
  m_Name: PhysDamage
  m_EditorClassIdentifier: 
  TierArray:
  - tier: 1
    minimumLevelToRollTier: 0
    modifierMinValue: 1
    modifierMaxValue: 5
    secondModifierMinValue: 1
    secondModifierMaxValue: 5
  - tier: 2
    minimumLevelToRollTier: 10
    modifierMinValue: 6
    modifierMaxValue: 10
    secondModifierMinValue: 6
    secondModifierMaxValue: 10
  - tier: 3
    minimumLevelToRollTier: 20
    modifierMinValue: 11
    modifierMaxValue: 15
    secondModifierMinValue: 11
    secondModifierMaxValue: 15
  - tier: 4
    minimumLevelToRollTier: 30
    modifierMinValue: 16
    modifierMaxValue: 20
    secondModifierMinValue: 16
    secondModifierMaxValue: 20
  - tier: 5
    minimumLevelToRollTier: 40
    modifierMinValue: 21
    modifierMaxValue: 25
    secondModifierMinValue: 21
    secondModifierMaxValue: 25
